Lab 3: First contact with dplyr and ggplot2
…
## # A tibble: 1 x 1
##   sd_mass
##     <dbl>
## 1    169.

use summarise() and group_by() to display
the median of mass, by homeworld

# your code
summarise(
    group_by(starwars, homeworld),
    median_mass = median(mass, na.rm = TRUE))

## # A tibble: 49 x 2
##    homeworld      median_mass
##    <chr>                <dbl>
##  1 Alderaan              64  
##  2 Aleen Minor           15  
##  3 Bespin                79  
##  4 Bestine IV           110  
##  5 Cato Neimoidia        90  
##  6 Cerea                 82  
##  7 Champala              NA  
##  8 Chandrila             NA  
##  9 Concord Dawn          79  
## 10 Corellia              78.5
## # ... with 39 more rows
…
